0.6575128097 0.4764549954 0.4783733721
There is negatvie dNLL point: =0.6600000262, dNLL=-7.097562775e-05. This is probably numerical fluctuation
Consistency with SM: 0.2367697378 0.7167320021\sigma
Consistency with B-only: 0.08349185883 1.381960865\sigma
