1.5148208 0.7670721904 0.8476847925
There is negatvie dNLL point: =1.519999981, dNLL=-3.773905337e-05. This is probably numerical fluctuation
Consistency with SM: 0.2542562128 0.6611557658\sigma
Consistency with B-only: 0.02035596579 2.046451887\sigma
