1.233621739 0.617836754 0.6752011631
There is negatvie dNLL point: =1.220000029, dNLL=-0.0002073314972. This is probably numerical fluctuation
Consistency with SM: 0.3580857252 0.3635802858\sigma
Consistency with B-only: 0.01861998588 2.083123457\sigma
