1.358518303 0.6459056364 0.7016046839
There is negatvie dNLL point: =1.360000014, dNLL=-1.473817974e-05. This is probably numerical fluctuation
Consistency with SM: 0.29393893 0.5419138431\sigma
Consistency with B-only: 0.01313906804 2.222076501\sigma
